{
    "rules": {
        "ban-types": [
            true,
            [
                "Object",
                "Use {} instead."
            ],
            [
                "String",
                "Use 'string' instead."
            ],
            [
                "Number",
                "Use 'number' instead."
            ],
            [
                "Boolean",
                "Use 'boolean' instead."
            ]
        ],
        "class-name": true,
        "curly": [
            true,
            "ignore-same-line"
        ],
        "comment-format": [
            true,
            "check-space"
        ],
        "indent": [
            true,
            "spaces"
        ],
        "one-line": [
            true,
            "check-open-brace",
            "check-whitespace"
        ],
        "no-var-keyword": true,
        "quotemark": [
            true,
            "double",
            "avoid-escape"
        ],
        "semicolon": [
            true,
            "always",
            "ignore-bound-class-methods"
        ],
        "whitespace": [
            true,
            "check-branch",
            "check-decl",
            "check-operator",
            "check-module",
            "check-separator",
            "check-type"
        ],
        "typedef-whitespace": [
            true,
            {
                "call-signature": "nospace",
                "index-signature": "nospace",
                "parameter": "nospace",
                "property-declaration": "nospace",
                "variable-declaration": "nospace"
            },
            {
                "call-signature": "onespace",
                "index-signature": "onespace",
                "parameter": "onespace",
                "property-declaration": "onespace",
                "variable-declaration": "onespace"
            }
        ],
        "jsdoc-format": true,
        "interface-name": [
            true,
            "never-prefix"
        ],
        "no-arg": true,
        "switch-default": true,
        "no-default-export": true,
        "only-arrow-functions": [
            true,
            "allow-declarations",
            "allow-named-functions"
        ],
        "no-duplicate-variable": true,
        "no-namespace": [
            true,
            "allow-declarations"
        ],
        "no-reference": true
    }
}